82,8,0
71,14,0
70,21,0
61,25,0
67,36,0
36,24,0
34,27,0
31,31,0
29,35,0
24,36,0
19,36,0
19,46,0
13,44,0
8,44,0
4,47,0
0,48,0
-4,44,0
-9,47,0
-13,44,0
-16,40,0
-19,37,0
-25,37,0
-27,33,0
-31,31,0
-33,27,0
-37,25,0
-39,21,0
-38,16,0
-38,11,0
-41,8,0
-37,3,0
-48,0,0
-34,-3,0
-38,-7,0
-42,-12,0
-44,-18,0
-43,-23,0
-30,-20,0
-30,-24,0
-27,-27,0
-24,-29,0
-22,-33,0
-16,-30,0
-13,-33,0
-10,-34,0
-6,-34,0
-3,-34,0
0,-36,0
3,-34,0
7,-38,0
9,-30,0
12,-30,0
16,-31,0
20,-29,0
23,-28,0
27,-27,0
29,-24,0
33,-22,0
35,-18,0
36,-15,0
40,-12,0
40,-7,0
42,-4,0
42,0,0
42,4,3
42,8,3
42,12,3
40,16,3
39,21,3
34,23,3
35,29,3
32,32,3
27,33,3
24,36,3
21,39,3
19,46,3
13,43,3
8,44,3
4,44,3
0,44,3
-4,44,3
-9,47,3
-13,45,3
-17,42,3
-21,40,3
-24,36,3
-27,33,3
-33,33,3
-34,28,3
-35,23,3
-39,21,3
-37,15,3
-39,11,3
-42,8,3
-41,4,3
-46,0,3
-44,-4,3
-39,-7,3
-42,-12,3
-48,-20,3
-47,-25,3
-35,-23,3
-33,-27,3
-26,-26,3
-24,-30,3
-21,-32,3
-18,-35,3
-15,-36,3
-11,-36,3
-7,-38,3
-3,-37,3
0,-38,3
3,-37,3
8,-41,3
11,-37,3
12,-29,3
17,-33,3
22,-34,3
25,-30,3
28,-28,3
31,-26,3
34,-22,3
37,-19,3
35,-14,3
40,-12,3
41,-8,3
43,-4,3
44,0,3
43,4,6
43,8,6
43,13,6
41,17,6
43,23,6
39,26,6
36,29,6
34,34,6
30,37,6
28,42,6
23,44,6
18,44,6
13,45,6
9,46,6
4,43,6
0,50,6
-4,45,6
-10,51,6
-13,45,6
-18,45,6
-22,42,6
-26,39,6
-30,37,6
-32,32,6
-34,28,6
-38,25,6
-42,22,6
-40,16,6
-42,12,6
-43,8,6
-44,4,6
-47,0,6
-44,-4,6
-42,-8,6
-49,-15,6
-53,-22,6
-52,-27,6
-41,-27,6
-32,-26,6
-30,-30,6
-24,-30,6
-22,-34,6
-19,-37,6
-16,-39,6
-11,-39,6
-7,-37,6
-3,-38,6
0,-38,6
4,-41,6
7,-37,6
10,-34,6
13,-33,6
19,-37,6
21,-31,6
26,-32,6
26,-26,6
32,-26,6
31,-21,6
35,-18,6
39,-16,6
43,-13,6
42,-8,6
42,-4,6
43,0,6
49,4,9
44,8,9
45,13,9
42,17,9
43,23,9
39,26,9
37,31,9
33,33,9
32,39,9
25,37,9
24,44,9
17,42,9
14,46,9
9,48,9
4,48,9
0,49,9
-4,48,9
-9,48,9
-15,49,9
-18,44,9
-22,42,9
-26,39,9
-31,37,9
-31,31,9
-37,31,9
-35,23,9
-42,22,9
-44,18,9
-42,12,9
-44,8,9
-45,4,9
-46,0,9
-45,-4,9
-44,-8,9
-44,-13,9
-57,-23,9
-52,-27,9
-41,-27,9
-34,-28,9
-31,-31,9
-29,-36,9
-23,-35,9
-18,-34,9
-16,-38,9
-12,-41,9
-8,-42,9
-4,-42,9
0,-41,9
4,-41,9
7,-35,9
11,-39,9
16,-39,9
18,-35,9
21,-32,9
26,-31,9
30,-30,9
35,-29,9
34,-23,9
39,-21,9
39,-16,9
41,-12,9
41,-8,9
45,-4,9
46,0,9
45,4,12
51,10,12
50,15,12
43,17,12
41,22,12
41,27,12
38,31,12
36,36,12
33,40,12
25,38,12
21,40,12
20,48,12
14,47,12
9,47,12
4,49,12
0,55,12
-4,49,12
-10,51,12
-13,44,12
-17,43,12
-22,42,12
-27,41,12
-32,39,12
-34,34,12
-38,31,12
-42,28,12
-42,22,12
-47,19,12
-45,13,12
-47,9,12
-45,4,12
-49,0,12
-49,-4,12
-47,-9,12
-47,-14,12
-60,-25,12
-57,-30,12
-44,-29,12
-34,-27,12
-31,-31,12
-30,-37,12
-22,-34,12
-22,-41,12
-15,-37,12
-13,-43,12
-8,-42,12
-4,-43,12
0,-42,12
4,-45,12
8,-41,12
12,-41,12
16,-39,12
20,-38,12
24,-36,12
28,-34,12
32,-32,12
32,-26,12
35,-23,12
40,-21,12
42,-17,12
44,-13,12
47,-9,12
47,-4,12
46,0,12
51,5,15
51,10,15
48,14,15
47,19,15
45,24,15
41,27,15
40,32,15
38,38,15
33,40,15
28,43,15
22,42,15
20,48,15
14,47,15
10,51,15
5,52,15
0,51,15
-5,52,15
-9,50,15
-14,48,15
-19,46,15
-21,40,15
-29,44,15
-32,39,15
-35,35,15
-38,31,15
-44,30,15
-46,24,15
-49,20,15
-47,14,15
-50,9,15
-50,4,15
-50,0,15
-52,-5,15
-51,-10,15
-47,-14,15
-62,-26,15
-62,-33,15
-41,-27,15
-37,-30,15
-35,-35,15
-27,-34,15
-26,-39,15
-23,-44,15
-17,-43,15
-13,-43,15
-9,-46,15
-4,-44,15
0,-43,15
4,-45,15
8,-44,15
13,-44,15
17,-43,15
20,-38,15
25,-38,15
28,-34,15
33,-33,15
34,-27,15
38,-25,15
40,-21,15
42,-17,15
44,-13,15
47,-9,15
50,-4,15
50,0,15
53,5,18
50,9,18
49,15,18
48,20,18
47,25,18
44,29,18
40,33,18
36,36,18
31,38,18
30,44,18
24,46,18
21,51,18
15,51,18
10,52,18
5,53,18
0,58,18
-5,52,18
-10,53,18
-14,48,18
-20,49,18
-23,44,18
-31,47,18
-32,39,18
-38,38,18
-38,31,18
-46,31,18
-46,24,18
-48,19,18
-49,15,18
-49,9,18
-51,5,18
-52,0,18
-49,-4,18
-50,-9,18
-51,-15,18
-64,-26,18
-62,-33,18
-42,-28,18
-37,-31,18
-37,-37,18
-29,-35,18
-28,-43,18
-22,-42,18
-17,-41,18
-13,-45,18
-8,-45,18
-4,-46,18
0,-49,18
4,-47,18
8,-43,18
13,-44,18
17,-43,18
23,-43,18
27,-41,18
29,-35,18
33,-33,18
37,-31,18
38,-25,18
42,-22,18
47,-19,18
46,-14,18
51,-10,18
51,-5,18
52,0,18
54,5,21
54,10,21
49,15,21
47,19,21
45,24,21
44,29,21
39,32,21
39,39,21
34,41,21
29,44,21
26,50,21
19,47,21
16,54,21
10,52,21
5,55,21
0,57,21
-5,55,21
-10,53,21
-15,51,21
-21,51,21
-26,49,21
-30,44,21
-35,43,21
-38,38,21
-42,34,21
-47,31,21
-50,26,21
-50,21,21
-51,15,21
-50,9,21
-51,5,21
-50,0,21
-55,-5,21
-53,-10,21
-53,-16,21
-65,-27,21
-62,-33,21
-42,-28,21
-40,-32,21
-36,-36,21
-31,-38,21
-27,-41,21
-23,-43,21
-19,-47,21
-13,-45,21
-9,-46,21
-4,-49,21
0,-46,21
4,-45,21
9,-47,21
15,-51,21
18,-44,21
24,-45,21
26,-39,21
31,-37,21
32,-32,21
41,-34,21
39,-26,21
44,-23,21
43,-17,21
49,-15,21
49,-9,21
49,-4,21
48,0,21
49,4,24
54,10,24
50,15,24
48,19,24
48,25,24
46,31,24
44,36,24
38,38,24
34,41,24
31,46,24
27,51,24
20,49,24
16,54,24
10,53,24
5,54,24
0,56,24
-5,54,24
-10,54,24
-16,54,24
-20,49,24
-25,48,24
-30,45,24
-36,44,24
-38,38,24
-44,36,24
-48,32,24
-48,25,24
-54,22,24
-52,15,24
-50,9,24
-54,5,24
-51,0,24
-49,-4,24
-52,-10,24
-52,-15,24
-67,-27,24
-65,-34,24
-45,-30,24
-41,-34,24
-33,-33,24
-31,-37,24
-27,-40,24
-24,-44,24
-20,-48,24
-12,-42,24
-9,-50,24
-5,-51,24
0,-49,24
4,-48,24
10,-51,24
13,-45,24
18,-45,24
24,-44,24
27,-41,24
31,-38,24
34,-34,24
40,-33,24
43,-28,24
45,-24,24
48,-19,24
48,-14,24
52,-10,24
50,-4,24
50,0,24
58,5,27
51,10,27
55,16,27
52,21,27
50,26,27
48,32,27
45,37,27
41,41,27
34,42,27
31,46,27
25,48,27
21,50,27
16,53,27
12,60,27
5,52,27
0,56,27
-5,53,27
-11,57,27
-17,58,27
-23,56,27
-27,51,27
-31,47,27
-35,43,27
-41,41,27
-45,37,27
-44,30,27
-49,26,27
-50,21,27
-53,16,27
-51,10,27
-59,5,27
-53,0,27
-49,-4,27
-53,-10,27
-56,-17,27
-67,-27,27
-65,-34,27
-42,-28,27
-39,-32,27
-34,-34,27
-34,-42,27
-26,-39,27
-22,-42,27
-18,-45,27
-14,-48,27
-9,-50,27
-4,-50,27
0,-49,27
5,-53,27
10,-52,27
16,-53,27
19,-48,27
24,-44,27
28,-43,27
30,-37,27
36,-36,27
37,-31,27
44,-30,27
44,-24,27
48,-20,27
47,-14,27
51,-10,27
51,-5,27
56,0,27
56,5,30
58,11,30
49,15,30
50,21,30
51,27,30
46,31,30
44,36,30
41,41,30
36,44,30
31,47,30
27,51,30
22,54,30
17,58,30
11,57,30
6,62,30
0,58,30
-5,60,30
-11,57,30
-16,55,30
-21,52,30
-28,52,30
-32,49,30
-34,41,30
-38,38,30
-43,35,30
-48,32,30
-49,26,30
-53,22,30
-52,15,30
-55,11,30
-53,5,30
-53,0,30
-52,-5,30
-55,-11,30
-53,-16,30
-67,-27,30
-64,-34,30
-44,-29,30
-41,-34,30
-39,-39,30
-31,-38,30
-28,-42,30
-22,-41,30
-20,-49,30
-15,-49,30
-9,-49,30
-4,-49,30
0,-53,30
4,-50,30
9,-48,30
13,-45,30
21,-50,30
23,-44,30
30,-45,30
31,-37,30
36,-36,30
40,-33,30
45,-30,30
50,-26,30
50,-21,30
48,-14,30
53,-10,30
51,-5,30
57,0,30
55,5,33
56,11,33
55,16,33
52,21,33
52,28,33
53,35,33
46,38,33
40,40,33
35,43,33
31,47,33
27,52,33
22,53,33
17,56,33
11,57,33
5,56,33
0,61,33
-5,58,33
-10,54,33
-17,57,33
-22,55,33
-29,55,33
-33,49,33
-34,42,33
-41,41,33
-44,36,33
-45,30,33
-50,26,33
-52,21,33
-58,17,33
-51,10,33
-56,5,33
-55,0,33
-54,-5,33
-56,-11,33
-54,-16,33
-63,-26,33
-59,-31,33
-44,-30,33
-44,-36,33
-36,-36,33
-30,-37,33
-28,-43,33
-24,-46,33
-20,-49,33
-14,-47,33
-10,-51,33
-5,-54,33
0,-52,33
5,-53,33
10,-51,33
16,-53,33
18,-45,33
24,-45,33
29,-44,33
31,-37,33
38,-38,33
45,-37,33
44,-29,33
44,-23,33
53,-22,33
48,-14,33
56,-11,33
55,-5,33
58,0,33
57,5,36
53,10,36
55,16,36
55,22,36
51,27,36
53,35,36
47,38,36
44,44,36
37,45,36
35,52,36
27,52,36
23,56,36
17,58,36
12,62,36
5,59,36
0,59,36
-5,55,36
-11,57,36
-17,56,36
-23,56,36
-26,50,36
-32,49,36
-35,43,36
-40,40,36
-45,37,36
-47,31,36
-51,27,36
-55,22,36
-55,16,36
-54,10,36
-54,5,36
-55,0,36
-51,-5,36
-56,-11,36
-54,-16,36
-59,-24,36
-55,-29,36
-43,-28,36
-44,-36,36
-38,-38,36
-31,-38,36
-31,-46,36
-27,-51,36
-20,-49,36
-14,-48,36
-10,-53,36
-5,-53,36
0,-55,36
5,-51,36
10,-51,36
15,-49,36
20,-49,36
24,-46,36
28,-43,36
33,-40,36
36,-36,36
38,-31,36
43,-28,36
50,-26,36
55,-22,36
52,-15,36
51,-10,36
56,-5,36
57,0,36
59,5,39
69,13,39
55,16,39
59,24,39
54,29,39
49,33,39
48,39,39
43,43,39
41,50,39
32,49,39
29,55,39
24,60,39
18,61,39
11,58,39
5,60,39
0,65,39
-6,67,39
-11,58,39
-17,59,39
-25,60,39
-29,55,39
-35,53,39
-39,48,39
-47,47,39
-44,36,39
-49,33,39
-53,28,39
-60,24,39
-56,17,39
-59,11,39
-61,6,39
-59,0,39
-53,-5,39
-52,-10,39
-53,-16,39
-59,-24,39
-57,-30,39
-45,-30,39
-43,-35,39
-38,-38,39
-35,-43,39
-28,-43,39
-25,-48,39
-20,-48,39
-14,-48,39
-11,-55,39
-5,-52,39
0,-53,39
5,-58,39
10,-51,39
15,-49,39
17,-43,39
25,-48,39
30,-44,39
36,-44,39
38,-38,39
42,-34,39
48,-32,39
52,-28,39
55,-22,39
53,-16,39
53,-10,39
60,-5,39
57,0,39
53,5,42
58,11,42
55,16,42
56,23,42
50,26,42
49,33,42
47,38,42
42,42,42
38,46,42
35,52,42
28,53,42
23,57,42
17,59,42
12,63,42
6,62,42
0,67,42
-6,63,42
-12,61,42
-18,62,42
-25,60,42
-30,57,42
-35,52,42
-41,51,42
-46,46,42
-49,40,42
-54,36,42
-56,30,42
-57,23,42
-57,17,42
-54,10,42
-60,5,42
-63,0,42
-59,-5,42
-59,-11,42
-58,-17,42
-59,-24,42
-61,-32,42
-49,-32,42
-43,-35,42
-41,-41,42
-34,-41,42
-31,-47,42
-26,-49,42
-22,-53,42
-14,-48,42
-10,-54,42
-5,-55,42
0,-55,42
5,-55,42
11,-57,42
16,-54,42
21,-50,42
28,-52,42
28,-43,42
34,-41,42
39,-39,42
41,-34,42
49,-32,42
51,-27,42
53,-22,42
50,-15,42
56,-11,42
58,-5,42
59,0,42
64,6,45
60,12,45
60,18,45
60,24,45
61,32,45
53,35,45
47,38,45
43,43,45
36,44,45
33,49,45
28,52,45
24,59,45
16,55,45
11,57,45
5,60,45
0,56,45
-6,61,45
-11,56,45
-17,58,45
-23,56,45
-32,59,45
-35,53,45
-36,44,45
-42,42,45
-47,39,45
-54,36,45
-59,31,45
-57,23,45
-57,17,45
-58,11,45
-64,6,45
-65,0,45
-57,-5,45
-57,-11,45
-64,-19,45
-61,-25,45
-53,-28,45
-57,-38,45
-42,-34,45
-36,-36,45
-33,-40,45
-30,-45,45
-26,-49,45
-22,-53,45
-17,-56,45
-10,-51,45
-4,-50,45
0,-54,45
5,-52,45
10,-53,45
14,-48,45
19,-48,45
24,-46,45
28,-43,45
33,-40,45
41,-41,45
41,-34,45
47,-31,45
51,-27,45
52,-21,45
55,-16,45
57,-11,45
56,-5,45
59,0,45
57,5,48
50,9,48
46,14,48
48,20,48
47,25,48
47,31,48
42,34,48
41,41,48
36,44,48
28,42,48
25,47,48
21,51,48
15,52,48
10,51,48
5,57,48
0,55,48
-5,54,48
-11,57,48
-15,50,48
-21,51,48
-24,46,48
-32,48,48
-32,39,48
-39,39,48
-44,36,48
-44,30,48
-46,24,48
-58,24,48
-53,16,48
-51,10,48
-56,5,48
-54,0,48
-49,-4,48
-51,-10,48
-47,-14,48
-48,-20,48
-45,-24,48
-41,-27,48
-41,-34,48
-35,-35,48
-31,-38,48
-28,-42,48
-22,-42,48
-21,-52,48
-16,-54,48
-10,-51,48
-4,-49,48
0,-50,48
4,-48,48
10,-51,48
14,-46,48
21,-50,48
25,-48,48
30,-44,48
35,-43,48
41,-41,48
49,-40,48
48,-32,48
51,-27,48
53,-22,48
53,-16,48
58,-11,48
57,-5,48
55,0,48
