27,2,0
27,5,0
26,8,0
25,10,0
24,13,0
25,17,0
23,19,0
21,21,0
19,23,0
17,25,0
14,26,0
11,27,0
8,28,0
5,29,0
2,29,0
0,29,0
-2,28,0
-5,28,0
-8,27,0
-11,26,0
-13,25,0
-16,24,0
-18,22,0
-20,20,0
-22,18,0
-21,14,0
-22,12,0
-24,9,0
-24,7,0
-25,5,0
-22,2,0
-23,0,0
-22,-2,0
-22,-4,0
-22,-6,0
-22,-9,0
-21,-11,0
-19,-13,0
-18,-15,0
-16,-16,0
-15,-18,0
-13,-19,0
-11,-21,0
-9,-22,0
-6,-22,0
-4,-22,0
-2,-22,0
0,-23,0
2,-22,0
4,-22,0
6,-22,0
9,-22,0
11,-21,0
13,-19,0
15,-18,0
18,-18,0
20,-16,0
21,-14,0
22,-12,0
24,-9,0
25,-7,0
26,-5,0
26,-2,0
27,0,0
27,2,3
27,5,3
26,8,3
25,10,3
24,13,3
26,17,3
24,20,3
22,22,3
20,24,3
17,26,3
14,27,3
11,28,3
8,29,3
6,30,3
3,30,3
0,30,3
-2,29,3
-5,29,3
-8,28,3
-11,27,3
-14,27,3
-17,25,3
-19,23,3
-21,21,3
-23,19,3
-22,15,3
-23,12,3
-24,10,3
-25,7,3
-26,5,3
-24,2,3
-25,0,3
-24,-2,3
-24,-4,3
-23,-7,3
-23,-9,3
-22,-11,3
-20,-13,3
-19,-15,3
-17,-17,3
-15,-19,3
-13,-20,3
-11,-22,3
-9,-23,3
-7,-23,3
-4,-24,3
-2,-24,3
0,-25,3
2,-24,3
4,-24,3
7,-24,3
9,-24,3
12,-22,3
14,-21,3
16,-20,3
20,-20,3
22,-18,3
24,-16,3
25,-13,3
26,-11,3
27,-8,3
28,-5,3
28,-2,3
29,0,3
29,2,6
29,5,6
28,8,6
27,11,6
26,14,6
28,18,6
26,21,6
24,24,6
21,26,6
18,28,6
16,29,6
13,31,6
9,32,6
6,33,6
3,33,6
0,33,6
-3,32,6
-6,32,6
-9,31,6
-12,30,6
-16,30,6
-19,29,6
-22,27,6
-24,24,6
-27,22,6
-24,16,6
-26,14,6
-27,11,6
-28,8,6
-29,5,6
-27,2,6
-28,0,6
-27,-2,6
-27,-5,6
-26,-8,6
-24,-10,6
-23,-12,6
-22,-15,6
-20,-17,6
-19,-19,6
-17,-20,6
-15,-22,6
-12,-23,6
-10,-24,6
-7,-25,6
-5,-25,6
-2,-25,6
0,-26,6
2,-25,6
5,-25,6
7,-25,6
10,-24,6
12,-23,6
15,-22,6
17,-20,6
21,-21,6
23,-19,6
24,-16,6
26,-14,6
27,-11,6
30,-9,6
31,-6,6
31,-3,6
32,0,6
30,3,9
30,6,9
29,8,9
28,11,9
27,14,9
29,19,9
27,22,9
24,24,9
22,27,9
19,29,9
16,30,9
13,32,9
10,33,9
6,34,9
3,34,9
0,35,9
-3,34,9
-6,34,9
-10,33,9
-13,32,9
-17,33,9
-21,31,9
-24,29,9
-26,26,9
-29,24,9
-25,17,9
-27,14,9
-28,11,9
-29,8,9
-30,6,9
-28,2,9
-29,0,9
-28,-2,9
-28,-5,9
-27,-8,9
-26,-11,9
-25,-13,9
-24,-16,9
-22,-18,9
-20,-20,9
-18,-22,9
-16,-24,9
-13,-25,9
-11,-26,9
-8,-27,9
-5,-27,9
-2,-27,9
0,-28,9
2,-27,9
5,-27,9
8,-28,9
11,-27,9
14,-26,9
16,-24,9
19,-23,9
21,-21,9
23,-19,9
25,-17,9
27,-14,9
28,-11,9
31,-9,9
32,-6,9
32,-3,9
33,0,9
33,3,12
33,6,12
32,9,12
31,13,12
29,16,12
30,20,12
28,23,12
26,26,12
23,28,12
20,30,12
16,31,12
13,33,12
10,34,12
7,35,12
3,35,12
0,38,12
-3,37,12
-7,37,12
-11,36,12
-14,35,12
-18,35,12
-22,33,12
-25,30,12
-28,28,12
-30,25,12
-28,18,12
-29,16,12
-31,13,12
-32,9,12
-33,6,12
-31,3,12
-32,0,12
-31,-3,12
-31,-6,12
-30,-9,12
-27,-11,12
-26,-14,12
-24,-16,12
-23,-19,12
-21,-21,12
-18,-22,12
-16,-24,12
-13,-25,12
-11,-26,12
-8,-27,12
-5,-29,12
-2,-29,12
0,-30,12
2,-29,12
5,-29,12
9,-30,12
12,-29,12
15,-28,12
17,-26,12
20,-24,12
24,-24,12
26,-21,12
28,-18,12
29,-16,12
31,-13,12
33,-10,12
34,-6,12
34,-3,12
35,0,12
34,3,15
34,6,15
33,10,15
32,13,15
30,16,15
32,21,15
30,24,15
27,27,15
24,30,15
21,32,15
18,34,15
14,36,15
11,37,15
7,38,15
3,38,15
0,40,15
-3,39,15
-7,39,15
-11,38,15
-15,36,15
-19,37,15
-23,34,15
-26,32,15
-29,29,15
-32,26,15
-29,19,15
-30,16,15
-32,13,15
-33,10,15
-34,6,15
-33,3,15
-34,0,15
-33,-3,15
-33,-6,15
-32,-9,15
-30,-12,15
-29,-15,15
-27,-18,15
-25,-20,15
-23,-23,15
-20,-24,15
-17,-26,15
-15,-28,15
-12,-29,15
-9,-30,15
-6,-31,15
-3,-31,15
0,-32,15
3,-31,15
6,-31,15
9,-31,15
12,-30,15
15,-29,15
18,-27,15
20,-25,15
24,-24,15
27,-22,15
29,-19,15
30,-16,15
32,-13,15
34,-10,15
35,-7,15
35,-3,15
36,0,15
35,3,18
35,7,18
34,10,18
33,13,18
31,16,18
33,22,18
30,25,18
28,28,18
25,30,18
22,33,18
19,36,18
15,37,18
11,39,18
7,40,18
4,40,18
0,42,18
-4,41,18
-8,41,18
-12,40,18
-16,38,18
-20,38,18
-24,36,18
-27,34,18
-31,31,18
-34,27,18
-29,20,18
-31,16,18
-33,13,18
-34,10,18
-35,7,18
-35,3,18
-36,0,18
-35,-3,18
-35,-7,18
-34,-10,18
-30,-12,18
-29,-15,18
-27,-18,18
-25,-20,18
-23,-23,18
-20,-25,18
-18,-27,18
-15,-29,18
-12,-30,18
-9,-31,18
-6,-33,18
-3,-33,18
0,-34,18
3,-33,18
6,-33,18
10,-33,18
13,-32,18
16,-30,18
19,-29,18
22,-27,18
26,-26,18
28,-23,18
30,-20,18
32,-17,18
34,-14,18
35,-10,18
36,-7,18
36,-3,18
37,0,18
38,3,21
38,7,21
37,11,21
36,14,21
34,18,21
34,23,21
32,26,21
29,29,21
26,32,21
23,34,21
19,37,21
16,38,21
12,40,21
8,41,21
4,41,21
0,43,21
-4,42,21
-8,42,21
-12,41,21
-16,39,21
-21,39,21
-25,37,21
-28,34,21
-31,31,21
-34,28,21
-30,20,21
-32,17,21
-34,14,21
-35,10,21
-36,7,21
-37,3,21
-38,0,21
-37,-3,21
-37,-7,21
-36,-11,21
-33,-13,21
-31,-16,21
-29,-20,21
-27,-22,21
-25,-25,21
-22,-27,21
-20,-29,21
-16,-31,21
-13,-33,21
-10,-34,21
-6,-33,21
-3,-33,21
0,-34,21
3,-33,21
6,-33,21
10,-34,21
13,-33,21
16,-31,21
20,-29,21
22,-27,21
25,-25,21
27,-22,21
29,-20,21
31,-16,21
33,-13,21
39,-11,21
40,-7,21
40,-4,21
41,0,21
39,3,24
39,7,24
38,11,24
36,15,24
35,18,24
37,25,24
34,28,24
31,31,24
28,34,24
25,37,24
20,37,24
16,39,24
12,41,24
8,42,24
4,42,24
0,43,24
-4,42,24
-8,42,24
-12,41,24
-16,39,24
-22,41,24
-26,39,24
-29,36,24
-33,33,24
-36,29,24
-33,22,24
-35,18,24
-36,15,24
-38,11,24
-39,7,24
-36,3,24
-37,0,24
-36,-3,24
-36,-7,24
-35,-10,24
-34,-14,24
-32,-17,24
-30,-20,24
-28,-23,24
-26,-26,24
-23,-28,24
-20,-30,24
-17,-32,24
-14,-34,24
-10,-35,24
-7,-36,24
-3,-36,24
0,-37,24
3,-36,24
7,-36,24
11,-36,24
14,-35,24
17,-33,24
21,-31,24
24,-29,24
28,-28,24
30,-25,24
33,-22,24
35,-18,24
36,-15,24
37,-11,24
38,-7,24
38,-3,24
39,0,24
41,4,27
41,8,27
40,12,27
38,16,27
37,19,27
37,25,27
34,28,27
31,31,27
28,34,27
25,37,27
21,39,27
17,41,27
13,43,27
8,44,27
4,44,27
0,46,27
-4,45,27
-8,45,27
-13,44,27
-17,42,27
-23,43,27
-27,40,27
-31,37,27
-34,34,27
-37,31,27
-34,23,27
-37,19,27
-38,16,27
-40,12,27
-41,8,27
-38,3,27
-39,0,27
-38,-3,27
-38,-7,27
-37,-11,27
-34,-14,27
-32,-17,27
-30,-20,27
-28,-23,27
-26,-26,27
-22,-27,27
-20,-29,27
-16,-31,27
-13,-33,27
-10,-34,27
-7,-37,27
-3,-37,27
0,-38,27
3,-37,27
7,-37,27
11,-37,27
14,-36,27
18,-34,27
21,-32,27
24,-30,27
28,-28,27
31,-26,27
34,-22,27
36,-19,27
37,-15,27
40,-12,27
41,-8,27
41,-4,27
42,0,27
42,4,30
42,8,30
41,12,30
39,16,30
37,20,30
38,25,30
35,29,30
32,32,30
29,35,30
25,38,30
21,39,30
17,41,30
13,43,30
8,44,30
4,44,30
0,47,30
-4,46,30
-9,46,30
-13,44,30
-17,43,30
-22,42,30
-26,39,30
-30,37,30
-33,33,30
-37,30,30
-34,23,30
-37,19,30
-38,16,30
-40,12,30
-41,8,30
-38,3,30
-39,0,30
-38,-3,30
-38,-7,30
-37,-11,30
-35,-14,30
-33,-17,30
-31,-21,30
-29,-24,30
-26,-26,30
-24,-29,30
-21,-31,30
-17,-33,30
-14,-35,30
-11,-36,30
-7,-38,30
-3,-38,30
0,-39,30
3,-38,30
7,-38,30
11,-36,30
14,-35,30
17,-33,30
21,-31,30
24,-29,30
28,-28,30
31,-26,30
34,-22,30
36,-19,30
37,-15,30
41,-12,30
42,-8,30
42,-4,30
43,0,30
43,4,33
43,8,33
42,12,33
40,16,33
38,20,33
38,25,33
35,29,33
32,32,33
29,35,33
25,38,33
20,38,33
16,40,33
12,42,33
8,43,33
4,43,33
0,46,33
-4,45,33
-8,45,33
-13,44,33
-17,42,33
-23,43,33
-27,40,33
-31,37,33
-34,34,33
-37,31,33
-34,22,33
-36,19,33
-37,15,33
-39,11,33
-40,7,33
-38,3,33
-39,0,33
-38,-3,33
-38,-7,33
-37,-11,33
-35,-14,33
-33,-17,33
-31,-21,33
-29,-24,33
-26,-26,33
-24,-30,33
-21,-32,33
-18,-34,33
-14,-36,33
-11,-37,33
-7,-38,33
-3,-38,33
0,-39,33
3,-38,33
7,-38,33
11,-38,33
15,-36,33
18,-35,33
22,-33,33
25,-30,33
28,-28,33
31,-26,33
34,-22,33
36,-19,33
37,-15,33
40,-12,33
41,-8,33
41,-4,33
42,0,33
43,4,36
43,8,36
42,12,36
40,16,36
38,20,36
38,25,36
35,29,36
32,32,36
29,35,36
25,38,36
21,39,36
17,41,36
13,43,36
8,44,36
4,44,36
0,46,36
-4,45,36
-8,45,36
-13,44,36
-17,42,36
-23,43,36
-27,40,36
-31,37,36
-34,34,36
-37,31,36
-34,23,36
-37,19,36
-38,16,36
-40,12,36
-41,8,36
-39,3,36
-40,0,36
-39,-3,36
-39,-7,36
-38,-11,36
-35,-14,36
-33,-17,36
-31,-21,36
-29,-24,36
-26,-26,36
-24,-29,36
-21,-31,36
-17,-33,36
-14,-35,36
-11,-36,36
-7,-38,36
-3,-38,36
0,-39,36
3,-38,36
7,-38,36
11,-39,36
15,-37,36
19,-36,36
22,-34,36
26,-31,36
29,-29,36
32,-26,36
34,-23,36
37,-19,36
38,-16,36
41,-12,36
42,-8,36
42,-4,36
43,0,36
43,4,39
43,8,39
42,12,39
40,16,39
38,20,39
40,27,39
37,31,39
34,34,39
31,37,39
27,40,39
21,40,39
17,42,39
13,44,39
8,45,39
4,45,39
0,46,39
-4,45,39
-8,45,39
-13,44,39
-17,42,39
-23,44,39
-27,41,39
-31,38,39
-35,35,39
-38,31,39
-35,23,39
-37,20,39
-39,16,39
-41,12,39
-42,8,39
-40,4,39
-41,0,39
-40,-4,39
-40,-7,39
-39,-11,39
-36,-15,39
-35,-18,39
-33,-22,39
-30,-25,39
-28,-28,39
-25,-30,39
-22,-33,39
-18,-35,39
-15,-36,39
-11,-38,39
-7,-39,39
-3,-39,39
0,-40,39
3,-39,39
7,-39,39
11,-38,39
15,-36,39
18,-35,39
22,-33,39
25,-30,39
30,-30,39
33,-27,39
35,-23,39
37,-20,39
39,-16,39
42,-12,39
43,-8,39
43,-4,39
44,0,39
43,4,42
43,8,42
42,12,42
40,16,42
38,20,42
39,26,42
37,30,42
33,33,42
30,37,42
26,39,42
22,41,42
17,43,42
13,44,42
9,46,42
4,46,42
0,47,42
-4,46,42
-9,46,42
-13,44,42
-17,43,42
-23,44,42
-27,41,42
-31,38,42
-35,35,42
-38,31,42
-35,23,42
-37,20,42
-39,16,42
-41,12,42
-42,8,42
-41,4,42
-42,0,42
-41,-4,42
-41,-8,42
-40,-12,42
-36,-15,42
-35,-18,42
-33,-22,42
-30,-25,42
-28,-28,42
-25,-30,42
-22,-33,42
-18,-35,42
-15,-36,42
-11,-38,42
-7,-40,42
-4,-40,42
0,-41,42
4,-40,42
7,-40,42
12,-40,42
16,-38,42
19,-37,42
23,-34,42
26,-32,42
30,-30,42
33,-27,42
35,-23,42
37,-20,42
39,-16,42
43,-13,42
44,-8,42
44,-4,42
45,0,42
46,4,45
46,9,45
44,13,45
43,17,45
41,22,45
39,26,45
37,30,45
33,33,45
30,37,45
26,39,45
22,42,45
18,44,45
13,45,45
9,47,45
4,47,45
0,48,45
-4,47,45
-9,47,45
-13,45,45
-18,44,45
-23,43,45
-27,40,45
-31,37,45
-34,34,45
-37,31,45
-36,24,45
-38,20,45
-40,16,45
-42,12,45
-43,8,45
-42,4,45
-43,0,45
-42,-4,45
-42,-8,45
-41,-12,45
-38,-16,45
-37,-19,45
-34,-23,45
-32,-26,45
-29,-29,45
-26,-31,45
-22,-34,45
-19,-36,45
-15,-37,45
-11,-39,45
-8,-43,45
-4,-43,45
0,-44,45
4,-43,45
8,-43,45
12,-41,45
16,-39,45
20,-37,45
23,-35,45
27,-33,45
31,-31,45
34,-28,45
37,-25,45
39,-21,45
41,-17,45
44,-13,45
46,-9,45
46,-4,45
47,0,45
47,4,48
47,9,48
45,13,48
44,18,48
42,22,48
43,28,48
40,32,48
36,36,48
32,40,48
28,43,48
23,43,48
18,45,48
14,46,48
9,48,48
4,48,48
0,49,48
-4,48,48
-9,48,48
-14,46,48
-18,45,48
-23,44,48
-27,41,48
-31,38,48
-35,35,48
-38,31,48
-38,25,48
-40,21,48
-42,17,48
-44,13,48
-45,8,48
-43,4,48
-44,0,48
-43,-4,48
-43,-8,48
-42,-12,48
-39,-16,48
-37,-20,48
-35,-23,48
-33,-27,48
-30,-30,48
-27,-33,48
-23,-35,48
-20,-37,48
-16,-39,48
-12,-41,48
-7,-40,48
-4,-40,48
0,-41,48
4,-40,48
7,-40,48
13,-44,48
17,-42,48
21,-40,48
25,-38,48
29,-35,48
33,-33,48
36,-29,48
39,-26,48
41,-22,48
43,-17,48
45,-13,48
47,-9,48
47,-4,48
48,0,48
50,4,51
50,9,51
48,14,51
47,19,51
44,24,51
44,30,51
41,34,51
38,38,51
34,41,51
30,44,51
24,46,51
20,48,51
15,50,51
10,51,51
5,52,51
0,51,51
-4,50,51
-9,50,51
-14,48,51
-19,47,51
-23,43,51
-27,40,51
-31,37,51
-34,34,51
-37,31,51
-37,25,51
-39,21,51
-41,17,51
-43,13,51
-44,8,51
-44,4,51
-45,0,51
-44,-4,51
-44,-8,51
-43,-13,51
-39,-16,51
-37,-20,51
-35,-23,51
-33,-27,51
-30,-30,51
-27,-33,51
-23,-35,51
-20,-37,51
-16,-39,51
-12,-41,51
-7,-40,51
-4,-40,51
0,-41,51
4,-40,51
7,-40,51
13,-43,51
17,-41,51
21,-39,51
25,-37,51
28,-34,51
33,-33,51
36,-29,51
39,-26,51
41,-22,51
43,-17,51
49,-15,51
51,-10,51
51,-5,51
52,0,51
51,5,54
51,10,54
49,15,54
48,19,54
45,24,54
42,28,54
39,32,54
36,36,54
32,39,54
28,42,54
25,47,54
20,49,54
15,51,54
10,52,54
5,53,54
0,59,54
-5,58,54
-11,57,54
-17,56,54
-22,54,54
-24,44,54
-28,42,54
-32,39,54
-36,36,54
-39,32,54
-40,27,54
-43,23,54
-45,18,54
-46,14,54
-48,9,54
-44,4,54
-45,0,54
-44,-4,54
-44,-8,54
-43,-13,54
-40,-16,54
-38,-20,54
-36,-24,54
-34,-27,54
-31,-31,54
-27,-33,54
-23,-35,54
-20,-37,54
-16,-39,54
-12,-41,54
-9,-49,54
-4,-49,54
0,-50,54
4,-49,54
9,-49,54
12,-42,54
16,-40,54
20,-38,54
24,-36,54
27,-34,54
36,-36,54
40,-32,54
43,-28,54
45,-24,54
48,-19,54
49,-15,54
51,-10,54
51,-5,54
52,0,54
48,4,57
48,9,57
46,14,57
45,18,57
43,23,57
38,25,57
35,29,57
32,32,57
29,35,57
25,38,57
21,39,57
17,41,57
13,43,57
8,44,57
4,44,57
0,44,57
-4,43,57
-8,43,57
-12,42,57
-16,40,57
-20,37,57
-23,35,57
-27,33,57
-30,30,57
-33,27,57
-38,25,57
-40,21,57
-42,17,57
-44,13,57
-45,8,57
-46,4,57
-47,0,57
-46,-4,57
-46,-9,57
-44,-13,57
-40,-16,57
-38,-20,57
-36,-24,57
-34,-27,57
-31,-31,57
-27,-34,57
-24,-36,57
-20,-38,57
-16,-40,57
-12,-42,57
-8,-44,57
-4,-44,57
0,-45,57
4,-44,57
8,-44,57
13,-44,57
17,-43,57
22,-41,57
26,-39,57
29,-36,57
31,-31,57
34,-27,57
36,-24,57
38,-20,57
40,-16,57
42,-12,57
43,-8,57
43,-4,57
44,0,57
44,4,60
44,8,60
43,13,60
41,17,60
39,21,60
34,23,60
32,26,60
29,29,60
26,32,60
23,34,60
19,37,60
16,38,60
12,40,60
8,41,60
4,41,60
0,42,60
-4,41,60
-8,41,60
-12,40,60
-16,38,60
-18,35,60
-22,33,60
-25,30,60
-28,28,60
-30,25,60
-31,21,60
-33,17,60
-35,14,60
-36,11,60
-37,7,60
-36,3,60
-37,0,60
-36,-3,60
-36,-7,60
-35,-10,60
-38,-16,60
-37,-19,60
-34,-23,60
-32,-26,60
-29,-29,60
-22,-27,60
-19,-29,60
-16,-30,60
-13,-32,60
-10,-33,60
-7,-35,60
-3,-35,60
0,-36,60
3,-35,60
7,-35,60
10,-34,60
13,-33,60
16,-31,60
20,-29,60
22,-27,60
26,-26,60
28,-23,60
30,-20,60
32,-17,60
34,-14,60
38,-11,60
39,-7,60
39,-3,60
40,0,60
